{
  "info": {
    "name": "contact",
    "description": ""
  },
  "connection": "default",
  "collectionName": "groups_contacts",
  "attributes": {
    "type": {
      "enum": [
        "FACEBOOK",
        "INSTAGRAM",
        "TEL",
        "OPENRICE",
        "TELEGRAM",
        "OTHER"
      ],
      "type": "enumeration"
    },
    "context": {
      "required": true,
      "type": "text"
    },
    "pusher": {
      "model": "pusher"
    }
  }
}