{
  "routes": [
    {
      "method": "GET",
      "path": "/districts",
      "handler": "District.find",
      "config": {
        "policies": []
      }
    },
    {
      "method": "GET",
      "path": "/districts/count",
      "handler": "District.count",
      "config": {
        "policies": []
      }
    },
    {
      "method": "GET",
      "path": "/districts/:id",
      "handler": "District.findOne",
      "config": {
        "policies": []
      }
    },
    {
      "method": "POST",
      "path": "/districts",
      "handler": "District.create",
      "config": {
        "policies": []
      }
    },
    {
      "method": "PUT",
      "path": "/districts/:id",
      "handler": "District.update",
      "config": {
        "policies": []
      }
    },
    {
      "method": "DELETE",
      "path": "/districts/:id",
      "handler": "District.delete",
      "config": {
        "policies": []
      }
    }
  ]
}
