{
  "connection": "default",
  "collectionName": "pushers",
  "info": {
    "name": "pusher",
    "description": ""
  },
  "options": {
    "increments": true,
    "timestamps": true,
    "comment": ""
  },
  "attributes": {
    "name": {
      "unique": true,
      "required": true,
      "type": "string"
    },
    "contact": {
      "type": "text"
    },
    "remark": {
      "type": "text"
    }
  }
}